<?xml version="1.0" encoding="utf-8"?>
<!-- Generator: Adobe Illustrator 21.0.2, SVG Export Plug-In . SVG Version: 6.00 Build 0)  -->
<svg version="1.1" id="Слой_1" xmlns="http://www.w3.org/2000/svg" xmlns:xlink="http://www.w3.org/1999/xlink" x="0px" y="0px"
	 viewBox="0 0 564 146" style="enable-background:new 0 0 564 146;" xml:space="preserve">
<style type="text/css">
	.st0{clip-path:url(#SVGID_2_);fill:#FFFFFF;}
	.st1{fill:#F4C844;}
	.st2{fill:#FFFFFF;}
</style>
<g>
	<g>
		<defs>
			<rect id="SVGID_1_" x="8" y="7" width="129.8" height="131.8"/>
		</defs>
		<clipPath id="SVGID_2_">
			<use xlink:href="#SVGID_1_"  style="overflow:visible;"/>
		</clipPath>
		<path class="st0" d="M131.8,6.9H92.6c-3.3,0-6,2.7-6,6c0,3.3,2.7,6,6,6h33.3v87.9c0,10.5-8.5,19-19,19H39c-10.5,0-19-8.5-19-19
			V18.9h33.3c3.3,0,6-2.7,6-6c0-3.3-2.7-6-6-6H14c-3.3,0-6,2.7-6,6v93.9c0,17.1,13.9,31,31,31h67.9c17.1,0,31-13.9,31-31V12.9
			C137.8,9.6,135.2,6.9,131.8,6.9L131.8,6.9z M131.8,6.9"/>
	</g>
</g>
<g>
	<path class="st1" d="M57.4,107.7c-6.3-3.5-11.3-8.2-14.8-14.3c-3.6-6.1-5.4-12.9-5.4-20.6c0-7.6,1.8-14.5,5.4-20.6
		c3.6-6.1,8.5-10.9,14.9-14.3c6.3-3.5,13.4-5.2,21.3-5.2c6.1,0,11.7,1,16.8,3.1c5.1,2.1,9.4,5.1,13,9.1l-7.3,7.1
		c-5.9-6.2-13.3-9.3-22.1-9.3c-5.8,0-11.1,1.3-15.8,3.9c-4.7,2.6-8.4,6.2-11,10.8c-2.7,4.6-4,9.7-4,15.4c0,5.7,1.3,10.8,4,15.4
		c2.6,4.6,6.3,8.2,11,10.8c4.7,2.6,10,3.9,15.8,3.9c8.7,0,16.1-3.1,22.1-9.4l7.3,7.1c-3.6,4-7.9,7.1-13,9.2
		c-5.1,2.1-10.7,3.1-16.9,3.1C70.8,112.9,63.7,111.2,57.4,107.7z"/>
	<path class="st2" d="M162.6,108.8c-4.7-2.6-8.4-6.2-11-10.8c-2.7-4.6-4-9.8-4-15.6c0-5.8,1.3-11,4-15.6c2.6-4.6,6.3-8.2,11-10.8
		c4.7-2.6,10-3.9,15.9-3.9c5.9,0,11.2,1.3,15.8,3.9c4.7,2.6,8.3,6.2,11,10.8c2.6,4.6,4,9.8,4,15.6c0,5.8-1.3,11-4,15.6
		c-2.7,4.6-6.3,8.2-11,10.8c-4.7,2.6-10,3.9-15.8,3.9C172.7,112.7,167.4,111.4,162.6,108.8z M188.8,100.6c3-1.8,5.4-4.2,7.1-7.4
		c1.7-3.2,2.6-6.8,2.6-10.9c0-4.1-0.9-7.7-2.6-10.9c-1.7-3.2-4.1-5.6-7.1-7.3c-3-1.7-6.4-2.6-10.2-2.6c-3.8,0-7.2,0.9-10.2,2.6
		c-3,1.7-5.4,4.2-7.2,7.3c-1.8,3.2-2.6,6.8-2.6,10.9c0,4.1,0.9,7.7,2.6,10.9c1.8,3.2,4.1,5.6,7.2,7.4c3,1.8,6.4,2.6,10.2,2.6
		C182.4,103.3,185.8,102.4,188.8,100.6z"/>
	<path class="st2" d="M273.9,58.6c4.4,4.4,6.7,10.8,6.7,19.2V112h-10.8V79.1c0-5.7-1.4-10.1-4.1-13c-2.8-2.9-6.7-4.4-11.9-4.4
		c-5.8,0-10.4,1.7-13.8,5.1c-3.4,3.4-5,8.3-5,14.6V112h-10.8V52.6h10.3v9c2.2-3.1,5.1-5.4,8.8-7.1c3.7-1.6,7.9-2.5,12.6-2.5
		C263.5,52.1,269.5,54.3,273.9,58.6z"/>
	<path class="st2" d="M350.2,58.6c4.4,4.4,6.7,10.8,6.7,19.2V112h-10.8V79.1c0-5.7-1.4-10.1-4.1-13c-2.8-2.9-6.7-4.4-11.9-4.4
		c-5.8,0-10.4,1.7-13.8,5.1c-3.4,3.4-5,8.3-5,14.6V112h-10.8V52.6h10.3v9c2.2-3.1,5.1-5.4,8.8-7.1c3.7-1.6,7.9-2.5,12.6-2.5
		C339.8,52.1,345.7,54.3,350.2,58.6z"/>
	<path class="st2" d="M430.6,85.9h-48.2c0.7,5.2,3,9.4,6.9,12.6c3.9,3.2,8.8,4.8,14.6,4.8c7.1,0,12.8-2.4,17.1-7.2l5.9,6.9
		c-2.7,3.1-6,5.5-10,7.2c-4,1.6-8.5,2.5-13.4,2.5c-6.3,0-11.8-1.3-16.7-3.9c-4.9-2.6-8.6-6.2-11.3-10.8c-2.7-4.6-4-9.9-4-15.7
		c0-5.7,1.3-10.9,3.9-15.6c2.6-4.6,6.1-8.2,10.6-10.8c4.5-2.6,9.6-3.9,15.3-3.9c5.7,0,10.7,1.3,15.2,3.9c4.4,2.6,7.9,6.2,10.4,10.8
		c2.5,4.6,3.8,9.9,3.8,15.9C430.8,83.5,430.7,84.6,430.6,85.9z M388.5,65.9c-3.5,3.1-5.5,7.2-6.1,12.3h38.1c-0.6-5-2.6-9.1-6.1-12.3
		c-3.5-3.2-7.8-4.8-12.9-4.8S392,62.7,388.5,65.9z"/>
	<path class="st2" d="M455.4,108.8c-4.7-2.6-8.5-6.2-11.1-10.8c-2.7-4.6-4-9.8-4-15.6c0-5.8,1.3-11,4-15.6
		c2.7-4.6,6.4-8.2,11.1-10.8c4.7-2.6,10.1-3.9,16.2-3.9c5.4,0,10.2,1.1,14.4,3.2c4.2,2.2,7.5,5.3,9.8,9.4l-8.2,5.3
		c-1.9-2.8-4.2-5-6.9-6.4c-2.8-1.4-5.8-2.1-9.2-2.1c-3.9,0-7.4,0.9-10.5,2.6c-3.1,1.7-5.5,4.2-7.3,7.3c-1.8,3.2-2.6,6.8-2.6,10.9
		c0,4.2,0.9,7.9,2.6,11c1.8,3.2,4.2,5.6,7.3,7.3c3.1,1.7,6.6,2.6,10.5,2.6c3.4,0,6.4-0.7,9.2-2.1c2.8-1.4,5.1-3.5,6.9-6.4l8.2,5.2
		c-2.3,4.1-5.6,7.3-9.8,9.5c-4.2,2.2-9,3.3-14.4,3.3C465.5,112.7,460.1,111.4,455.4,108.8z"/>
	<path class="st2" d="M543.8,108.5c-1.6,1.3-3.5,2.4-5.8,3.1c-2.3,0.7-4.7,1.1-7.2,1.1c-6,0-10.6-1.6-13.9-4.8
		c-3.3-3.2-4.9-7.8-4.9-13.8V61.5h-10.1v-8.8H512v-13h10.8v13h17v8.8h-17v32.1c0,3.2,0.8,5.7,2.4,7.4c1.6,1.7,3.9,2.6,6.9,2.6
		c3.3,0,6.1-0.9,8.4-2.8L543.8,108.5z"/>
</g>
</svg>
